[
  {
    "resultId": 1,
    "raceId": 1061,
    "driverId": 830,
    "constructorId": 9,
    "number": 33,
    "grid": 2,
    "position": 1,
    "positionText": 1,
    "positionOrder": 1,
    "points": 3,
    "laps": 17,
    "time": "25:38.426",
    "milliseconds": 1538426,
    "fastestLap": 14,
    "fastestLapTime": "1:30.013",
    "statusId": 1
  },
  {
    "resultId": 2,
    "raceId": 1061,
    "driverId": 1,
    "constructorId": 131,
    "number": 44,
    "grid": 1,
    "position": 2,
    "positionText": 2,
    "positionOrder": 2,
    "points": 2,
    "laps": 17,
    "time": "+1.430",
    "milliseconds": 1539856,
    "fastestLap": 17,
    "fastestLapTime": "1:29.937",
    "statusId": 1
  },
  {
    "resultId": 3,
    "raceId": 1061,
    "driverId": 822,
    "constructorId": 131,
    "number": 77,
    "grid": 3,
    "position": 3,
    "positionText": 3,
    "positionOrder": 3,
    "points": 1,
    "laps": 17,
    "time": "+7.502",
    "milliseconds": 1545928,
    "fastestLap": 17,
    "fastestLapTime": "1:29.958",
    "statusId": 1
  },
  {
    "resultId": 4,
    "raceId": 1061,
    "driverId": 844,
    "constructorId": 6,
    "number": 16,
    "grid": 4,
    "position": 4,
    "positionText": 4,
    "positionOrder": 4,
    "points": 0,
    "laps": 17,
    "time": "+11.278",
    "milliseconds": 1549704,
    "fastestLap": 16,
    "fastestLapTime": "1:30.163",
    "statusId": 1
  },
  {
    "resultId": 5,
    "raceId": 1061,
    "driverId": 846,
    "constructorId": 1,
    "number": 4,
    "grid": 6,
    "position": 5,
    "positionText": 5,
    "positionOrder": 5,
    "points": 0,
    "laps": 17,
    "time": "+24.111",
    "milliseconds": 1562537,
    "fastestLap": 16,
    "fastestLapTime": "1:30.566",
    "statusId": 1
  },
  {
    "resultId": 6,
    "raceId": 1061,
    "driverId": 817,
    "constructorId": 1,
    "number": 3,
    "grid": 7,
    "position": 6,
    "positionText": 6,
    "positionOrder": 6,
    "points": 0,
    "laps": 17,
    "time": "+30.959",
    "milliseconds": 1569385,
    "fastestLap": 17,
    "fastestLapTime": "1:30.640",
    "statusId": 1
  },
  {
    "resultId": 7,
    "raceId": 1061,
    "driverId": 4,
    "constructorId": 214,
    "number": 14,
    "grid": 11,
    "position": 7,
    "positionText": 7,
    "positionOrder": 7,
    "points": 0,
    "laps": 17,
    "time": "+43.527",
    "milliseconds": 1581953,
    "fastestLap": 17,
    "fastestLapTime": "1:31.773",
    "statusId": 1
  },
  {
    "resultId": 8,
    "raceId": 1061,
    "driverId": 20,
    "constructorId": 117,
    "number": 5,
    "grid": 10,
    "position": 8,
    "positionText": 8,
    "positionOrder": 8,
    "points": 0,
    "laps": 17,
    "time": "+44.439",
    "milliseconds": 1582865,
    "fastestLap": 17,
    "fastestLapTime": "1:31.687",
    "statusId": 1
  },
  {
    "resultId": 9,
    "raceId": 1061,
    "driverId": 847,
    "constructorId": 3,
    "number": 63,
    "grid": 8,
    "position": 9,
    "positionText": 9,
    "positionOrder": 9,
    "points": 0,
    "laps": 17,
    "time": "+46.652",
    "milliseconds": 1585078,
    "fastestLap": 17,
    "fastestLapTime": "1:32.208",
    "statusId": 1
  },
  {
    "resultId": 10,
    "raceId": 1061,
    "driverId": 839,
    "constructorId": 214,
    "number": 31,
    "grid": 13,
    "position": 10,
    "positionText": 10,
    "positionOrder": 10,
    "points": 0,
    "laps": 17,
    "time": "+47.395",
    "milliseconds": 1585821,
    "fastestLap": 16,
    "fastestLapTime": "1:32.183",
    "statusId": 1
  },
  {
    "resultId": 11,
    "raceId": 1061,
    "driverId": 832,
    "constructorId": 6,
    "number": 55,
    "grid": 9,
    "position": 11,
    "positionText": 11,
    "positionOrder": 11,
    "points": 0,
    "laps": 17,
    "time": "+47.798",
    "milliseconds": 1586224,
    "fastestLap": 10,
    "fastestLapTime": "1:31.991",
    "statusId": 1
  },
  {
    "resultId": 12,
    "raceId": 1061,
    "driverId": 842,
    "constructorId": 213,
    "number": 10,
    "grid": 12,
    "position": 12,
    "positionText": 12,
    "positionOrder": 12,
    "points": 0,
    "laps": 17,
    "time": "+48.763",
    "milliseconds": 1587189,
    "fastestLap": 17,
    "fastestLapTime": "1:32.072",
    "statusId": 1
  },
  {
    "resultId": 13,
    "raceId": 1061,
    "driverId": 8,
    "constructorId": 51,
    "number": 7,
    "grid": 17,
    "position": 13,
    "positionText": 13,
    "positionOrder": 13,
    "points": 0,
    "laps": 17,
    "time": "+50.677",
    "milliseconds": 1589103,
    "fastestLap": 12,
    "fastestLapTime": "1:32.139",
    "statusId": 1
  },
  {
    "resultId": 14,
    "raceId": 1061,
    "driverId": 840,
    "constructorId": 117,
    "number": 18,
    "grid": 15,
    "position": 14,
    "positionText": 14,
    "positionOrder": 14,
    "points": 0,
    "laps": 17,
    "time": "+52.179",
    "milliseconds": 1590605,
    "fastestLap": 12,
    "fastestLapTime": "1:32.210",
    "statusId": 1
  },
  {
    "resultId": 15,
    "raceId": 1061,
    "driverId": 841,
    "constructorId": 51,
    "number": 99,
    "grid": 14,
    "position": 15,
    "positionText": 15,
    "positionOrder": 15,
    "points": 0,
    "laps": 17,
    "time": "+53.225",
    "milliseconds": 1591651,
    "fastestLap": 14,
    "fastestLapTime": "1:32.457",
    "statusId": 1
  },
  {
    "resultId": 16,
    "raceId": 1061,
    "driverId": 852,
    "constructorId": 213,
    "number": 22,
    "grid": 16,
    "position": 16,
    "positionText": 16,
    "positionOrder": 16,
    "points": 0,
    "laps": 17,
    "time": "+53.567",
    "milliseconds": 1591993,
    "fastestLap": 14,
    "fastestLapTime": "1:32.270",
    "statusId": 1
  },
  {
    "resultId": 17,
    "raceId": 1061,
    "driverId": 849,
    "constructorId": 3,
    "number": 6,
    "grid": 18,
    "position": 17,
    "positionText": 17,
    "positionOrder": 17,
    "points": 0,
    "laps": 17,
    "time": "+55.162",
    "milliseconds": 1593588,
    "fastestLap": 17,
    "fastestLapTime": "1:32.143",
    "statusId": 1
  },
  {
    "resultId": 18,
    "raceId": 1061,
    "driverId": 854,
    "constructorId": 210,
    "number": 47,
    "grid": 19,
    "position": 18,
    "positionText": 18,
    "positionOrder": 18,
    "points": 0,
    "laps": 17,
    "time": "+1:08.213",
    "milliseconds": 1606639,
    "fastestLap": 15,
    "fastestLapTime": "1:32.567",
    "statusId": 1
  },
  {
    "resultId": 19,
    "raceId": 1061,
    "driverId": 853,
    "constructorId": 210,
    "number": 9,
    "grid": 20,
    "position": 19,
    "positionText": 19,
    "positionOrder": 19,
    "points": 0,
    "laps": 17,
    "time": "+1:17.648",
    "milliseconds": 1616074,
    "fastestLap": 3,
    "fastestLapTime": "1:33.462",
    "statusId": 1
  },
  {
    "resultId": 20,
    "raceId": 1061,
    "driverId": 815,
    "constructorId": 9,
    "number": 11,
    "grid": 5,
    "position": "\\N",
    "positionText": "R",
    "positionOrder": 20,
    "points": 0,
    "laps": 16,
    "time": "\\N",
    "milliseconds": "\\N",
    "fastestLap": 6,
    "fastestLapTime": "1:31.465",
    "statusId": 76
  },
  {
    "resultId": 21,
    "raceId": 1065,
    "driverId": 822,
    "constructorId": 131,
    "number": 77,
    "grid": 1,
    "position": 1,
    "positionText": 1,
    "positionOrder": 1,
    "points": 3,
    "laps": 18,
    "time": "27:54.078",
    "milliseconds": 1674078,
    "fastestLap": 9,
    "fastestLapTime": "1:23.540",
    "statusId": 1
  },
  {
    "resultId": 22,
    "raceId": 1065,
    "driverId": 830,
    "constructorId": 9,
    "number": 33,
    "grid": 3,
    "position": 2,
    "positionText": 2,
    "positionOrder": 2,
    "points": 2,
    "laps": 18,
    "time": "+2.325",
    "milliseconds": 1676403,
    "fastestLap": 9,
    "fastestLapTime": "1:23.502",
    "statusId": 1
  },
  {
    "resultId": 23,
    "raceId": 1065,
    "driverId": 817,
    "constructorId": 1,
    "number": 3,
    "grid": 5,
    "position": 3,
    "positionText": 3,
    "positionOrder": 3,
    "points": 1,
    "laps": 18,
    "time": "+14.534",
    "milliseconds": 1688612,
    "fastestLap": 17,
    "fastestLapTime": "1:24.291",
    "statusId": 1
  },
  {
    "resultId": 24,
    "raceId": 1065,
    "driverId": 846,
    "constructorId": 1,
    "number": 4,
    "grid": 4,
    "position": 4,
    "positionText": 4,
    "positionOrder": 4,
    "points": 0,
    "laps": 18,
    "time": "+18.835",
    "milliseconds": 1692913,
    "fastestLap": 9,
    "fastestLapTime": "1:24.554",
    "statusId": 1
  },
  {
    "resultId": 25,
    "raceId": 1065,
    "driverId": 1,
    "constructorId": 131,
    "number": 44,
    "grid": 2,
    "position": 5,
    "positionText": 5,
    "positionOrder": 5,
    "points": 0,
    "laps": 18,
    "time": "+20.011",
    "milliseconds": 1694089,
    "fastestLap": 9,
    "fastestLapTime": "1:24.253",
    "statusId": 1
  },
  {
    "resultId": 26,
    "raceId": 1065,
    "driverId": 844,
    "constructorId": 6,
    "number": 16,
    "grid": 8,
    "position": 6,
    "positionText": 6,
    "positionOrder": 6,
    "points": 0,
    "laps": 18,
    "time": "+23.442",
    "milliseconds": 1697520,
    "fastestLap": 18,
    "fastestLapTime": "1:24.677",
    "statusId": 1
  },
  {
    "resultId": 27,
    "raceId": 1065,
    "driverId": 832,
    "constructorId": 6,
    "number": 55,
    "grid": 7,
    "position": 7,
    "positionText": 7,
    "positionOrder": 7,
    "points": 0,
    "laps": 18,
    "time": "+27.952",
    "milliseconds": 1702030,
    "fastestLap": 8,
    "fastestLapTime": "1:24.918",
    "statusId": 1
  },
  {
    "resultId": 28,
    "raceId": 1065,
    "driverId": 841,
    "constructorId": 51,
    "number": 99,
    "grid": 10,
    "position": 8,
    "positionText": 8,
    "positionOrder": 8,
    "points": 0,
    "laps": 18,
    "time": "+31.089",
    "milliseconds": 1705167,
    "fastestLap": 10,
    "fastestLapTime": "1:25.126",
    "statusId": 1
  },
  {
    "resultId": 29,
    "raceId": 1065,
    "driverId": 815,
    "constructorId": 9,
    "number": 11,
    "grid": 9,
    "position": 9,
    "positionText": 9,
    "positionOrder": 9,
    "points": 0,
    "laps": 18,
    "time": "+31.680",
    "milliseconds": 1705758,
    "fastestLap": 12,
    "fastestLapTime": "1:24.211",
    "statusId": 1
  },
  {
    "resultId": 30,
    "raceId": 1065,
    "driverId": 840,
    "constructorId": 117,
    "number": 18,
    "grid": 12,
    "position": 10,
    "positionText": 10,
    "positionOrder": 10,
    "points": 0,
    "laps": 18,
    "time": "+38.671",
    "milliseconds": 1712749,
    "fastestLap": 8,
    "fastestLapTime": "1:25.349",
    "statusId": 1
  },
  {
    "resultId": 31,
    "raceId": 1065,
    "driverId": 4,
    "constructorId": 214,
    "number": 14,
    "grid": 13,
    "position": 11,
    "positionText": 11,
    "positionOrder": 11,
    "points": 0,
    "laps": 18,
    "time": "+39.795",
    "milliseconds": 1713873,
    "fastestLap": 8,
    "fastestLapTime": "1:25.225",
    "statusId": 1
  },
  {
    "resultId": 32,
    "raceId": 1065,
    "driverId": 20,
    "constructorId": 117,
    "number": 5,
    "grid": 11,
    "position": 12,
    "positionText": 12,
    "positionOrder": 12,
    "points": 0,
    "laps": 18,
    "time": "+41.177",
    "milliseconds": 1715255,
    "fastestLap": 8,
    "fastestLapTime": "1:25.493",
    "statusId": 1
  },
  {
    "resultId": 33,
    "raceId": 1065,
    "driverId": 839,
    "constructorId": 214,
    "number": 31,
    "grid": 14,
    "position": 13,
    "positionText": 13,
    "positionOrder": 13,
    "points": 0,
    "laps": 18,
    "time": "+43.373",
    "milliseconds": 1717451,
    "fastestLap": 8,
    "fastestLapTime": "1:25.613",
    "statusId": 1
  },
  {
    "resultId": 34,
    "raceId": 1065,
    "driverId": 849,
    "constructorId": 3,
    "number": 6,
    "grid": 16,
    "position": 14,
    "positionText": 14,
    "positionOrder": 14,
    "points": 0,
    "laps": 18,
    "time": "+45.977",
    "milliseconds": 1720055,
    "fastestLap": 9,
    "fastestLapTime": "1:25.711",
    "statusId": 1
  },
  {
    "resultId": 35,
    "raceId": 1065,
    "driverId": 847,
    "constructorId": 3,
    "number": 63,
    "grid": 15,
    "position": 15,
    "positionText": 15,
    "positionOrder": 15,
    "points": 0,
    "laps": 18,
    "time": "+46.821",
    "milliseconds": 1720899,
    "fastestLap": 15,
    "fastestLapTime": "1:25.835",
    "statusId": 1
  },
  {
    "resultId": 36,
    "raceId": 1065,
    "driverId": 852,
    "constructorId": 213,
    "number": 22,
    "grid": 17,
    "position": 16,
    "positionText": 16,
    "positionOrder": 16,
    "points": 0,
    "laps": 18,
    "time": "+49.977",
    "milliseconds": 1724055,
    "fastestLap": 18,
    "fastestLapTime": "1:25.847",
    "statusId": 1
  },
  {
    "resultId": 37,
    "raceId": 1065,
    "driverId": 853,
    "constructorId": 210,
    "number": 9,
    "grid": 20,
    "position": 17,
    "positionText": 17,
    "positionOrder": 17,
    "points": 0,
    "laps": 18,
    "time": "+1:02.599",
    "milliseconds": 1736677,
    "fastestLap": 7,
    "fastestLapTime": "1:26.613",
    "statusId": 1
  },
  {
    "resultId": 38,
    "raceId": 1065,
    "driverId": 9,
    "constructorId": 51,
    "number": 88,
    "grid": 19,
    "position": 18,
    "positionText": 18,
    "positionOrder": 18,
    "points": 0,
    "laps": 18,
    "time": "+1:05.096",
    "milliseconds": 1739174,
    "fastestLap": 12,
    "fastestLapTime": "1:26.772",
    "statusId": 1
  },
  {
    "resultId": 39,
    "raceId": 1065,
    "driverId": 854,
    "constructorId": 210,
    "number": 47,
    "grid": 18,
    "position": 19,
    "positionText": 19,
    "positionOrder": 19,
    "points": 0,
    "laps": 18,
    "time": "+1:06.154",
    "milliseconds": 1740232,
    "fastestLap": 7,
    "fastestLapTime": "1:26.819",
    "statusId": 1
  },
  {
    "resultId": 40,
    "raceId": 1065,
    "driverId": 842,
    "constructorId": 213,
    "number": 10,
    "grid": 6,
    "position": "\\N",
    "positionText": "R",
    "positionOrder": 20,
    "points": 0,
    "laps": 0,
    "time": "\\N",
    "milliseconds": "\\N",
    "fastestLap": "\\N",
    "fastestLapTime": "\\N",
    "statusId": 3
  },
  {
    "resultId": 41,
    "raceId": 1071,
    "driverId": 822,
    "constructorId": 131,
    "number": 77,
    "grid": 2,
    "position": 1,
    "positionText": 1,
    "positionOrder": 1,
    "points": 3,
    "laps": 24,
    "time": "29:09.559",
    "milliseconds": 1749559,
    "fastestLap": 8,
    "fastestLapTime": "1:12.300",
    "statusId": 1
  },
  {
    "resultId": 42,
    "raceId": 1071,
    "driverId": 830,
    "constructorId": 9,
    "number": 33,
    "grid": 1,
    "position": 2,
    "positionText": 2,
    "positionOrder": 2,
    "points": 2,
    "laps": 24,
    "time": "+1.170",
    "milliseconds": 1750729,
    "fastestLap": 9,
    "fastestLapTime": "1:12.114",
    "statusId": 1
  },
  {
    "resultId": 43,
    "raceId": 1071,
    "driverId": 832,
    "constructorId": 6,
    "number": 55,
    "grid": 5,
    "position": 3,
    "positionText": 3,
    "positionOrder": 3,
    "points": 1,
    "laps": 24,
    "time": "+18.723",
    "milliseconds": 1768282,
    "fastestLap": 13,
    "fastestLapTime": "1:13.167",
    "statusId": 1
  },
  {
    "resultId": 44,
    "raceId": 1071,
    "driverId": 815,
    "constructorId": 9,
    "number": 11,
    "grid": 3,
    "position": 4,
    "positionText": 4,
    "positionOrder": 4,
    "points": 0,
    "laps": 24,
    "time": "+19.787",
    "milliseconds": 1769346,
    "fastestLap": 13,
    "fastestLapTime": "1:13.110",
    "statusId": 1
  },
  {
    "resultId": 45,
    "raceId": 1071,
    "driverId": 1,
    "constructorId": 131,
    "number": 44,
    "grid": 20,
    "position": 5,
    "positionText": 5,
    "positionOrder": 5,
    "points": 0,
    "laps": 24,
    "time": "+20.872",
    "milliseconds": 1770431,
    "fastestLap": 5,
    "fastestLapTime": "1:12.357",
    "statusId": 1
  },
  {
    "resultId": 46,
    "raceId": 1071,
    "driverId": 846,
    "constructorId": 1,
    "number": 4,
    "grid": 7,
    "position": 6,
    "positionText": 6,
    "positionOrder": 6,
    "points": 0,
    "laps": 24,
    "time": "+22.558",
    "milliseconds": 1772117,
    "fastestLap": 8,
    "fastestLapTime": "1:12.994",
    "statusId": 1
  },
  {
    "resultId": 47,
    "raceId": 1071,
    "driverId": 844,
    "constructorId": 6,
    "number": 16,
    "grid": 6,
    "position": 7,
    "positionText": 7,
    "positionOrder": 7,
    "points": 0,
    "laps": 24,
    "time": "+25.056",
    "milliseconds": 1774615,
    "fastestLap": 4,
    "fastestLapTime": "1:13.140",
    "statusId": 1
  },
  {
    "resultId": 48,
    "raceId": 1071,
    "driverId": 842,
    "constructorId": 213,
    "number": 10,
    "grid": 4,
    "position": 8,
    "positionText": 8,
    "positionOrder": 8,
    "points": 0,
    "laps": 24,
    "time": "+34.158",
    "milliseconds": 1783717,
    "fastestLap": 4,
    "fastestLapTime": "1:13.342",
    "statusId": 1
  },
  {
    "resultId": 49,
    "raceId": 1071,
    "driverId": 839,
    "constructorId": 214,
    "number": 31,
    "grid": 10,
    "position": 9,
    "positionText": 9,
    "positionOrder": 9,
    "points": 0,
    "laps": 24,
    "time": "+34.632",
    "milliseconds": 1784191,
    "fastestLap": 11,
    "fastestLapTime": "1:13.615",
    "statusId": 1
  },
  {
    "resultId": 50,
    "raceId": 1071,
    "driverId": 20,
    "constructorId": 117,
    "number": 5,
    "grid": 11,
    "position": 10,
    "positionText": 10,
    "positionOrder": 10,
    "points": 0,
    "laps": 24,
    "time": "+34.867",
    "milliseconds": 1784426,
    "fastestLap": 5,
    "fastestLapTime": "1:13.558",
    "statusId": 1
  },
  {
    "resultId": 51,
    "raceId": 1071,
    "driverId": 817,
    "constructorId": 1,
    "number": 3,
    "grid": 8,
    "position": 11,
    "positionText": 11,
    "positionOrder": 11,
    "points": 0,
    "laps": 24,
    "time": "+35.869",
    "milliseconds": 1785428,
    "fastestLap": 9,
    "fastestLapTime": "1:13.463",
    "statusId": 1
  },
  {
    "resultId": 52,
    "raceId": 1071,
    "driverId": 4,
    "constructorId": 214,
    "number": 14,
    "grid": 9,
    "position": 12,
    "positionText": 12,
    "positionOrder": 12,
    "points": 0,
    "laps": 24,
    "time": "+36.578",
    "milliseconds": 1786137,
    "fastestLap": 4,
    "fastestLapTime": "1:13.397",
    "statusId": 1
  },
  {
    "resultId": 53,
    "raceId": 1071,
    "driverId": 841,
    "constructorId": 51,
    "number": 99,
    "grid": 14,
    "position": 13,
    "positionText": 13,
    "positionOrder": 13,
    "points": 0,
    "laps": 24,
    "time": "+41.880",
    "milliseconds": 1791439,
    "fastestLap": 11,
    "fastestLapTime": "1:13.627",
    "statusId": 1
  },
  {
    "resultId": 54,
    "raceId": 1071,
    "driverId": 840,
    "constructorId": 117,
    "number": 18,
    "grid": 15,
    "position": 14,
    "positionText": 14,
    "positionOrder": 14,
    "points": 0,
    "laps": 24,
    "time": "+44.037",
    "milliseconds": 1793596,
    "fastestLap": 9,
    "fastestLapTime": "1:13.666",
    "statusId": 1
  },
  {
    "resultId": 55,
    "raceId": 1071,
    "driverId": 852,
    "constructorId": 213,
    "number": 22,
    "grid": 12,
    "position": 15,
    "positionText": 15,
    "positionOrder": 15,
    "points": 0,
    "laps": 24,
    "time": "+46.150",
    "milliseconds": 1795709,
    "fastestLap": 11,
    "fastestLapTime": "1:13.747",
    "statusId": 1
  },
  {
    "resultId": 56,
    "raceId": 1071,
    "driverId": 849,
    "constructorId": 3,
    "number": 6,
    "grid": 16,
    "position": 16,
    "positionText": 16,
    "positionOrder": 16,
    "points": 0,
    "laps": 24,
    "time": "+46.760",
    "milliseconds": 1796319,
    "fastestLap": 7,
    "fastestLapTime": "1:13.934",
    "statusId": 1
  },
  {
    "resultId": 57,
    "raceId": 1071,
    "driverId": 847,
    "constructorId": 3,
    "number": 63,
    "grid": 17,
    "position": 17,
    "positionText": 17,
    "positionOrder": 17,
    "points": 0,
    "laps": 24,
    "time": "+47.739",
    "milliseconds": 1797298,
    "fastestLap": 14,
    "fastestLapTime": "1:14.056",
    "statusId": 1
  },
  {
    "resultId": 58,
    "raceId": 1071,
    "driverId": 8,
    "constructorId": 51,
    "number": 7,
    "grid": 13,
    "position": 18,
    "positionText": 18,
    "positionOrder": 18,
    "points": 0,
    "laps": 24,
    "time": "+50.014",
    "milliseconds": 1799573,
    "fastestLap": 9,
    "fastestLapTime": "1:13.900",
    "statusId": 1
  },
  {
    "resultId": 59,
    "raceId": 1071,
    "driverId": 854,
    "constructorId": 210,
    "number": 47,
    "grid": 18,
    "position": 19,
    "positionText": 19,
    "positionOrder": 19,
    "points": 0,
    "laps": 24,
    "time": "+1:01.680",
    "milliseconds": 1811239,
    "fastestLap": 9,
    "fastestLapTime": "1:14.387",
    "statusId": 1
  },
  {
    "resultId": 60,
    "raceId": 1071,
    "driverId": 853,
    "constructorId": 210,
    "number": 9,
    "grid": 19,
    "position": 20,
    "positionText": 20,
    "positionOrder": 20,
    "points": 0,
    "laps": 24,
    "time": "+1:07.474",
    "milliseconds": 1817033,
    "fastestLap": 6,
    "fastestLapTime": "1:14.583",
    "statusId": 1
  },
  {
    "resultId": 61,
    "raceId": 1077,
    "driverId": 830,
    "constructorId": 9,
    "number": 1,
    "grid": 1,
    "position": 1,
    "positionText": 1,
    "positionOrder": 1,
    "points": 8,
    "laps": 21,
    "time": "30:39.567",
    "milliseconds": 1839567,
    "fastestLap": 14,
    "fastestLapTime": "1:19.154",
    "statusId": 1
  },
  {
    "resultId": 62,
    "raceId": 1077,
    "driverId": 844,
    "constructorId": 6,
    "number": 16,
    "grid": 2,
    "position": 2,
    "positionText": 2,
    "positionOrder": 2,
    "points": 7,
    "laps": 21,
    "time": "+2.975",
    "milliseconds": 1842542,
    "fastestLap": 11,
    "fastestLapTime": "1:19.044",
    "statusId": 1
  },
  {
    "resultId": 63,
    "raceId": 1077,
    "driverId": 815,
    "constructorId": 9,
    "number": 11,
    "grid": 7,
    "position": 3,
    "positionText": 3,
    "positionOrder": 3,
    "points": 6,
    "laps": 21,
    "time": "+4.721",
    "milliseconds": 1844288,
    "fastestLap": 14,
    "fastestLapTime": "1:19.012",
    "statusId": 1
  },
  {
    "resultId": 64,
    "raceId": 1077,
    "driverId": 832,
    "constructorId": 6,
    "number": 55,
    "grid": 10,
    "position": 4,
    "positionText": 4,
    "positionOrder": 4,
    "points": 5,
    "laps": 21,
    "time": "+17.578",
    "milliseconds": 1857145,
    "fastestLap": 14,
    "fastestLapTime": "1:19.251",
    "statusId": 1
  },
  {
    "resultId": 65,
    "raceId": 1077,
    "driverId": 846,
    "constructorId": 1,
    "number": 4,
    "grid": 3,
    "position": 5,
    "positionText": 5,
    "positionOrder": 5,
    "points": 4,
    "laps": 21,
    "time": "+24.561",
    "milliseconds": 1864128,
    "fastestLap": 9,
    "fastestLapTime": "1:20.030",
    "statusId": 1
  },
  {
    "resultId": 66,
    "raceId": 1077,
    "driverId": 817,
    "constructorId": 1,
    "number": 3,
    "grid": 6,
    "position": 6,
    "positionText": 6,
    "positionOrder": 6,
    "points": 3,
    "laps": 21,
    "time": "+27.740",
    "milliseconds": 1867307,
    "fastestLap": 12,
    "fastestLapTime": "1:20.328",
    "statusId": 1
  },
  {
    "resultId": 67,
    "raceId": 1077,
    "driverId": 822,
    "constructorId": 51,
    "number": 77,
    "grid": 8,
    "position": 7,
    "positionText": 7,
    "positionOrder": 7,
    "points": 2,
    "laps": 21,
    "time": "+28.133",
    "milliseconds": 1867700,
    "fastestLap": 9,
    "fastestLapTime": "1:20.219",
    "statusId": 1
  },
  {
    "resultId": 68,
    "raceId": 1077,
    "driverId": 825,
    "constructorId": 210,
    "number": 20,
    "grid": 4,
    "position": 8,
    "positionText": 8,
    "positionOrder": 8,
    "points": 1,
    "laps": 21,
    "time": "+30.712",
    "milliseconds": 1870279,
    "fastestLap": 6,
    "fastestLapTime": "1:20.557",
    "statusId": 1
  },
  {
    "resultId": 69,
    "raceId": 1077,
    "driverId": 4,
    "constructorId": 214,
    "number": 14,
    "grid": 5,
    "position": 9,
    "positionText": 9,
    "positionOrder": 9,
    "points": 0,
    "laps": 21,
    "time": "+32.278",
    "milliseconds": 1871845,
    "fastestLap": 10,
    "fastestLapTime": "1:20.639",
    "statusId": 1
  },
  {
    "resultId": 70,
    "raceId": 1077,
    "driverId": 854,
    "constructorId": 210,
    "number": 47,
    "grid": 12,
    "position": 10,
    "positionText": 10,
    "positionOrder": 10,
    "points": 0,
    "laps": 21,
    "time": "+33.773",
    "milliseconds": 1873340,
    "fastestLap": 15,
    "fastestLapTime": "1:20.567",
    "statusId": 1
  },
  {
    "resultId": 71,
    "raceId": 1077,
    "driverId": 847,
    "constructorId": 131,
    "number": 63,
    "grid": 11,
    "position": 11,
    "positionText": 11,
    "positionOrder": 11,
    "points": 0,
    "laps": 21,
    "time": "+36.284",
    "milliseconds": 1875851,
    "fastestLap": 19,
    "fastestLapTime": "1:20.756",
    "statusId": 1
  },
  {
    "resultId": 72,
    "raceId": 1077,
    "driverId": 852,
    "constructorId": 213,
    "number": 22,
    "grid": 16,
    "position": 12,
    "positionText": 12,
    "positionOrder": 12,
    "points": 0,
    "laps": 21,
    "time": "+38.298",
    "milliseconds": 1877865,
    "fastestLap": 20,
    "fastestLapTime": "1:20.909",
    "statusId": 1
  },
  {
    "resultId": 73,
    "raceId": 1077,
    "driverId": 20,
    "constructorId": 117,
    "number": 5,
    "grid": 9,
    "position": 13,
    "positionText": 13,
    "positionOrder": 13,
    "points": 0,
    "laps": 21,
    "time": "+40.177",
    "milliseconds": 1879744,
    "fastestLap": 8,
    "fastestLapTime": "1:21.044",
    "statusId": 1
  },
  {
    "resultId": 74,
    "raceId": 1077,
    "driverId": 1,
    "constructorId": 131,
    "number": 44,
    "grid": 13,
    "position": 14,
    "positionText": 14,
    "positionOrder": 14,
    "points": 0,
    "laps": 21,
    "time": "+41.459",
    "milliseconds": 1881026,
    "fastestLap": 9,
    "fastestLapTime": "1:20.663",
    "statusId": 1
  },
  {
    "resultId": 75,
    "raceId": 1077,
    "driverId": 840,
    "constructorId": 117,
    "number": 18,
    "grid": 15,
    "position": 15,
    "positionText": 15,
    "positionOrder": 15,
    "points": 0,
    "laps": 21,
    "time": "+42.910",
    "milliseconds": 1882477,
    "fastestLap": 14,
    "fastestLapTime": "1:20.948",
    "statusId": 1
  },
  {
    "resultId": 76,
    "raceId": 1077,
    "driverId": 839,
    "constructorId": 214,
    "number": 31,
    "grid": 19,
    "position": 16,
    "positionText": 16,
    "positionOrder": 16,
    "points": 0,
    "laps": 21,
    "time": "+43.517",
    "milliseconds": 1883084,
    "fastestLap": 14,
    "fastestLapTime": "1:20.995",
    "statusId": 1
  },
  {
    "resultId": 77,
    "raceId": 1077,
    "driverId": 842,
    "constructorId": 213,
    "number": 10,
    "grid": 17,
    "position": 17,
    "positionText": 17,
    "positionOrder": 17,
    "points": 0,
    "laps": 21,
    "time": "+43.794",
    "milliseconds": 1883361,
    "fastestLap": 18,
    "fastestLapTime": "1:20.599",
    "statusId": 1
  },
  {
    "resultId": 78,
    "raceId": 1077,
    "driverId": 848,
    "constructorId": 3,
    "number": 23,
    "grid": 20,
    "position": 18,
    "positionText": 18,
    "positionOrder": 18,
    "points": 0,
    "laps": 21,
    "time": "+48.871",
    "milliseconds": 1888438,
    "fastestLap": 14,
    "fastestLapTime": "1:21.020",
    "statusId": 1
  },
  {
    "resultId": 79,
    "raceId": 1077,
    "driverId": 849,
    "constructorId": 3,
    "number": 6,
    "grid": 18,
    "position": 19,
    "positionText": 19,
    "positionOrder": 19,
    "points": 0,
    "laps": 21,
    "time": "+52.017",
    "milliseconds": 1891584,
    "fastestLap": 16,
    "fastestLapTime": "1:21.437",
    "statusId": 1
  },
  {
    "resultId": 80,
    "raceId": 1077,
    "driverId": 855,
    "constructorId": 51,
    "number": 24,
    "grid": 0,
    "position": "\\N",
    "positionText": "R",
    "positionOrder": 20,
    "points": 0,
    "laps": 0,
    "time": "\\N",
    "milliseconds": "\\N",
    "fastestLap": "\\N",
    "fastestLapTime": "\\N",
    "statusId": 31
  },
  {
    "resultId": 81,
    "raceId": 1084,
    "driverId": 830,
    "constructorId": 9,
    "number": 1,
    "grid": 1,
    "position": 1,
    "positionText": 1,
    "positionOrder": 1,
    "points": 8,
    "laps": 23,
    "time": "26:30.059",
    "milliseconds": 1590059,
    "fastestLap": 5,
    "fastestLapTime": "1:08.455",
    "statusId": 1
  },
  {
    "resultId": 82,
    "raceId": 1084,
    "driverId": 844,
    "constructorId": 6,
    "number": 16,
    "grid": 2,
    "position": 2,
    "positionText": 2,
    "positionOrder": 2,
    "points": 7,
    "laps": 23,
    "time": "+1.675",
    "milliseconds": 1591734,
    "fastestLap": 4,
    "fastestLapTime": "1:08.321",
    "statusId": 1
  },
  {
    "resultId": 83,
    "raceId": 1084,
    "driverId": 832,
    "constructorId": 6,
    "number": 55,
    "grid": 3,
    "position": 3,
    "positionText": 3,
    "positionOrder": 3,
    "points": 6,
    "laps": 23,
    "time": "+5.644",
    "milliseconds": 1595703,
    "fastestLap": 4,
    "fastestLapTime": "1:08.409",
    "statusId": 1
  },
  {
    "resultId": 84,
    "raceId": 1084,
    "driverId": 847,
    "constructorId": 131,
    "number": 63,
    "grid": 4,
    "position": 4,
    "positionText": 4,
    "positionOrder": 4,
    "points": 5,
    "laps": 23,
    "time": "+13.429",
    "milliseconds": 1603488,
    "fastestLap": 4,
    "fastestLapTime": "1:08.979",
    "statusId": 1
  },
  {
    "resultId": 85,
    "raceId": 1084,
    "driverId": 815,
    "constructorId": 9,
    "number": 11,
    "grid": 13,
    "position": 5,
    "positionText": 5,
    "positionOrder": 5,
    "points": 4,
    "laps": 23,
    "time": "+18.302",
    "milliseconds": 1608361,
    "fastestLap": 14,
    "fastestLapTime": "1:09.137",
    "statusId": 1
  },
  {
    "resultId": 86,
    "raceId": 1084,
    "driverId": 839,
    "constructorId": 214,
    "number": 31,
    "grid": 5,
    "position": 6,
    "positionText": 6,
    "positionOrder": 6,
    "points": 3,
    "laps": 23,
    "time": "+31.032",
    "milliseconds": 1621091,
    "fastestLap": 4,
    "fastestLapTime": "1:09.384",
    "statusId": 1
  },
  {
    "resultId": 87,
    "raceId": 1084,
    "driverId": 825,
    "constructorId": 210,
    "number": 20,
    "grid": 6,
    "position": 7,
    "positionText": 7,
    "positionOrder": 7,
    "points": 2,
    "laps": 23,
    "time": "+34.539",
    "milliseconds": 1624598,
    "fastestLap": 4,
    "fastestLapTime": "1:09.232",
    "statusId": 1
  },
  {
    "resultId": 88,
    "raceId": 1084,
    "driverId": 1,
    "constructorId": 131,
    "number": 44,
    "grid": 9,
    "position": 8,
    "positionText": 8,
    "positionOrder": 8,
    "points": 1,
    "laps": 23,
    "time": "+35.447",
    "milliseconds": 1625506,
    "fastestLap": 7,
    "fastestLapTime": "1:09.516",
    "statusId": 1
  },
  {
    "resultId": 89,
    "raceId": 1084,
    "driverId": 854,
    "constructorId": 210,
    "number": 47,
    "grid": 7,
    "position": 9,
    "positionText": 9,
    "positionOrder": 9,
    "points": 0,
    "laps": 23,
    "time": "+37.163",
    "milliseconds": 1627222,
    "fastestLap": 4,
    "fastestLapTime": "1:09.457",
    "statusId": 1
  },
  {
    "resultId": 90,
    "raceId": 1084,
    "driverId": 822,
    "constructorId": 51,
    "number": 77,
    "grid": 12,
    "position": 10,
    "positionText": 10,
    "positionOrder": 10,
    "points": 0,
    "laps": 23,
    "time": "+37.557",
    "milliseconds": 1627616,
    "fastestLap": 4,
    "fastestLapTime": "1:09.674",
    "statusId": 1
  },
  {
    "resultId": 91,
    "raceId": 1084,
    "driverId": 846,
    "constructorId": 1,
    "number": 4,
    "grid": 15,
    "position": 11,
    "positionText": 11,
    "positionOrder": 11,
    "points": 0,
    "laps": 23,
    "time": "+38.580",
    "milliseconds": 1628639,
    "fastestLap": 8,
    "fastestLapTime": "1:09.909",
    "statusId": 1
  },
  {
    "resultId": 92,
    "raceId": 1084,
    "driverId": 817,
    "constructorId": 1,
    "number": 3,
    "grid": 16,
    "position": 12,
    "positionText": 12,
    "positionOrder": 12,
    "points": 0,
    "laps": 23,
    "time": "+39.738",
    "milliseconds": 1629797,
    "fastestLap": 8,
    "fastestLapTime": "1:09.996",
    "statusId": 1
  },
  {
    "resultId": 93,
    "raceId": 1084,
    "driverId": 840,
    "constructorId": 117,
    "number": 18,
    "grid": 17,
    "position": 13,
    "positionText": 13,
    "positionOrder": 13,
    "points": 0,
    "laps": 23,
    "time": "+48.241",
    "milliseconds": 1638300,
    "fastestLap": 4,
    "fastestLapTime": "1:10.295",
    "statusId": 1
  },
  {
    "resultId": 94,
    "raceId": 1084,
    "driverId": 855,
    "constructorId": 51,
    "number": 24,
    "grid": 18,
    "position": 14,
    "positionText": 14,
    "positionOrder": 14,
    "points": 0,
    "laps": 23,
    "time": "+50.753",
    "milliseconds": 1640812,
    "fastestLap": 11,
    "fastestLapTime": "1:10.165",
    "statusId": 1
  },
  {
    "resultId": 95,
    "raceId": 1084,
    "driverId": 842,
    "constructorId": 213,
    "number": 10,
    "grid": 10,
    "position": 15,
    "positionText": 15,
    "positionOrder": 15,
    "points": 0,
    "laps": 23,
    "time": "+52.125",
    "milliseconds": 1642184,
    "fastestLap": 4,
    "fastestLapTime": "1:10.409",
    "statusId": 1
  },
  {
    "resultId": 96,
    "raceId": 1084,
    "driverId": 848,
    "constructorId": 3,
    "number": 23,
    "grid": 11,
    "position": 16,
    "positionText": 16,
    "positionOrder": 16,
    "points": 0,
    "laps": 23,
    "time": "+52.412",
    "milliseconds": 1642471,
    "fastestLap": 5,
    "fastestLapTime": "1:10.367",
    "statusId": 1
  },
  {
    "resultId": 97,
    "raceId": 1084,
    "driverId": 852,
    "constructorId": 213,
    "number": 22,
    "grid": 14,
    "position": 17,
    "positionText": 17,
    "positionOrder": 17,
    "points": 0,
    "laps": 23,
    "time": "+54.556",
    "milliseconds": 1644615,
    "fastestLap": 4,
    "fastestLapTime": "1:10.267",
    "statusId": 1
  },
  {
    "resultId": 98,
    "raceId": 1084,
    "driverId": 849,
    "constructorId": 3,
    "number": 6,
    "grid": 19,
    "position": 18,
    "positionText": 18,
    "positionOrder": 18,
    "points": 0,
    "laps": 23,
    "time": "+1:08.694",
    "milliseconds": 1658753,
    "fastestLap": 4,
    "fastestLapTime": "1:10.284",
    "statusId": 1
  },
  {
    "resultId": 99,
    "raceId": 1084,
    "driverId": 20,
    "constructorId": 117,
    "number": 5,
    "grid": 20,
    "position": 19,
    "positionText": 19,
    "positionOrder": 19,
    "points": 0,
    "laps": 21,
    "time": "\\N",
    "milliseconds": "\\N",
    "fastestLap": 4,
    "fastestLapTime": "1:10.317",
    "statusId": 130
  },
  {
    "resultId": 100,
    "raceId": 1084,
    "driverId": 4,
    "constructorId": 214,
    "number": 14,
    "grid": 8,
    "position": "\\N",
    "positionText": "N",
    "positionOrder": 20,
    "points": 0,
    "laps": 0,
    "time": "\\N",
    "milliseconds": "\\N",
    "fastestLap": "\\N",
    "fastestLapTime": "\\N",
    "statusId": 10
  },
  {
    "resultId": 101,
    "raceId": 1095,
    "driverId": 847,
    "constructorId": 131,
    "number": 63,
    "grid": 3,
    "position": 1,
    "positionText": 1,
    "positionOrder": 1,
    "points": 8,
    "laps": 24,
    "time": "30:11.307",
    "milliseconds": 1811307,
    "fastestLap": 4,
    "fastestLapTime": "1:14.233",
    "statusId": 1
  },
  {
    "resultId": 102,
    "raceId": 1095,
    "driverId": 832,
    "constructorId": 6,
    "number": 55,
    "grid": 5,
    "position": 2,
    "positionText": 2,
    "positionOrder": 2,
    "points": 7,
    "laps": 24,
    "time": "+3.995",
    "milliseconds": 1815302,
    "fastestLap": 2,
    "fastestLapTime": "1:14.522",
    "statusId": 1
  },
  {
    "resultId": 103,
    "raceId": 1095,
    "driverId": 1,
    "constructorId": 131,
    "number": 44,
    "grid": 8,
    "position": 3,
    "positionText": 3,
    "positionOrder": 3,
    "points": 6,
    "laps": 24,
    "time": "+4.492",
    "milliseconds": 1815799,
    "fastestLap": 3,
    "fastestLapTime": "1:14.317",
    "statusId": 1
  },
  {
    "resultId": 104,
    "raceId": 1095,
    "driverId": 830,
    "constructorId": 9,
    "number": 1,
    "grid": 2,
    "position": 4,
    "positionText": 4,
    "positionOrder": 4,
    "points": 5,
    "laps": 24,
    "time": "+10.494",
    "milliseconds": 1821801,
    "fastestLap": 5,
    "fastestLapTime": "1:14.507",
    "statusId": 1
  },
  {
    "resultId": 105,
    "raceId": 1095,
    "driverId": 815,
    "constructorId": 9,
    "number": 11,
    "grid": 9,
    "position": 5,
    "positionText": 5,
    "positionOrder": 5,
    "points": 4,
    "laps": 24,
    "time": "+11.855",
    "milliseconds": 1823162,
    "fastestLap": 5,
    "fastestLapTime": "1:14.699",
    "statusId": 1
  },
  {
    "resultId": 106,
    "raceId": 1095,
    "driverId": 844,
    "constructorId": 6,
    "number": 16,
    "grid": 10,
    "position": 6,
    "positionText": 6,
    "positionOrder": 6,
    "points": 3,
    "laps": 24,
    "time": "+13.133",
    "milliseconds": 1824440,
    "fastestLap": 4,
    "fastestLapTime": "1:15.236",
    "statusId": 1
  },
  {
    "resultId": 107,
    "raceId": 1095,
    "driverId": 846,
    "constructorId": 1,
    "number": 4,
    "grid": 4,
    "position": 7,
    "positionText": 7,
    "positionOrder": 7,
    "points": 2,
    "laps": 24,
    "time": "+25.624",
    "milliseconds": 1836931,
    "fastestLap": 4,
    "fastestLapTime": "1:15.380",
    "statusId": 1
  },
  {
    "resultId": 108,
    "raceId": 1095,
    "driverId": 825,
    "constructorId": 210,
    "number": 20,
    "grid": 1,
    "position": 8,
    "positionText": 8,
    "positionOrder": 8,
    "points": 1,
    "laps": 24,
    "time": "+28.768",
    "milliseconds": 1840075,
    "fastestLap": 2,
    "fastestLapTime": "1:15.110",
    "statusId": 1
  },
  {
    "resultId": 109,
    "raceId": 1095,
    "driverId": 20,
    "constructorId": 117,
    "number": 5,
    "grid": 13,
    "position": 9,
    "positionText": 9,
    "positionOrder": 9,
    "points": 0,
    "laps": 24,
    "time": "+30.218",
    "milliseconds": 1841525,
    "fastestLap": 4,
    "fastestLapTime": "1:15.451",
    "statusId": 1
  },
  {
    "resultId": 110,
    "raceId": 1095,
    "driverId": 842,
    "constructorId": 213,
    "number": 10,
    "grid": 12,
    "position": 10,
    "positionText": 10,
    "positionOrder": 10,
    "points": 0,
    "laps": 24,
    "time": "+34.170",
    "milliseconds": 1845477,
    "fastestLap": 3,
    "fastestLapTime": "1:15.290",
    "statusId": 1
  },
  {
    "resultId": 111,
    "raceId": 1095,
    "driverId": 817,
    "constructorId": 1,
    "number": 3,
    "grid": 14,
    "position": 11,
    "positionText": 11,
    "positionOrder": 11,
    "points": 0,
    "laps": 24,
    "time": "+39.395",
    "milliseconds": 1850702,
    "fastestLap": 5,
    "fastestLapTime": "1:15.385",
    "statusId": 1
  },
  {
    "resultId": 112,
    "raceId": 1095,
    "driverId": 854,
    "constructorId": 210,
    "number": 47,
    "grid": 20,
    "position": 12,
    "positionText": 12,
    "positionOrder": 12,
    "points": 0,
    "laps": 24,
    "time": "+41.159",
    "milliseconds": 1852466,
    "fastestLap": 5,
    "fastestLapTime": "1:15.771",
    "statusId": 1
  },
  {
    "resultId": 113,
    "raceId": 1095,
    "driverId": 855,
    "constructorId": 51,
    "number": 24,
    "grid": 17,
    "position": 13,
    "positionText": 13,
    "positionOrder": 13,
    "points": 0,
    "laps": 24,
    "time": "+41.763",
    "milliseconds": 1853070,
    "fastestLap": 7,
    "fastestLapTime": "1:15.765",
    "statusId": 1
  },
  {
    "resultId": 114,
    "raceId": 1095,
    "driverId": 822,
    "constructorId": 51,
    "number": 77,
    "grid": 18,
    "position": 14,
    "positionText": 14,
    "positionOrder": 14,
    "points": 0,
    "laps": 24,
    "time": "+42.338",
    "milliseconds": 1853645,
    "fastestLap": 8,
    "fastestLapTime": "1:15.980",
    "statusId": 1
  },
  {
    "resultId": 115,
    "raceId": 1095,
    "driverId": 852,
    "constructorId": 213,
    "number": 22,
    "grid": 19,
    "position": 15,
    "positionText": 15,
    "positionOrder": 15,
    "points": 0,
    "laps": 24,
    "time": "+50.306",
    "milliseconds": 1861613,
    "fastestLap": 4,
    "fastestLapTime": "1:16.413",
    "statusId": 1
  },
  {
    "resultId": 116,
    "raceId": 1095,
    "driverId": 840,
    "constructorId": 117,
    "number": 18,
    "grid": 15,
    "position": 16,
    "positionText": 16,
    "positionOrder": 16,
    "points": 0,
    "laps": 24,
    "time": "+50.700",
    "milliseconds": 1862007,
    "fastestLap": 4,
    "fastestLapTime": "1:15.425",
    "statusId": 1
  },
  {
    "resultId": 117,
    "raceId": 1095,
    "driverId": 839,
    "constructorId": 214,
    "number": 31,
    "grid": 6,
    "position": 17,
    "positionText": 17,
    "positionOrder": 17,
    "points": 0,
    "laps": 24,
    "time": "+51.756",
    "milliseconds": 1863063,
    "fastestLap": 5,
    "fastestLapTime": "1:16.097",
    "statusId": 1
  },
  {
    "resultId": 118,
    "raceId": 1095,
    "driverId": 4,
    "constructorId": 214,
    "number": 14,
    "grid": 7,
    "position": 18,
    "positionText": 18,
    "positionOrder": 18,
    "points": 0,
    "laps": 24,
    "time": "+53.985",
    "milliseconds": 1865292,
    "fastestLap": 5,
    "fastestLapTime": "1:14.764",
    "statusId": 1
  },
  {
    "resultId": 119,
    "raceId": 1095,
    "driverId": 849,
    "constructorId": 3,
    "number": 6,
    "grid": 16,
    "position": 19,
    "positionText": 19,
    "positionOrder": 19,
    "points": 0,
    "laps": 24,
    "time": "+1:16.850",
    "milliseconds": 1888157,
    "fastestLap": 4,
    "fastestLapTime": "1:16.525",
    "statusId": 1
  },
  {
    "resultId": 120,
    "raceId": 1095,
    "driverId": 848,
    "constructorId": 3,
    "number": 23,
    "grid": 11,
    "position": "\\N",
    "positionText": "R",
    "positionOrder": 20,
    "points": 0,
    "laps": 12,
    "time": "\\N",
    "milliseconds": "\\N",
    "fastestLap": 4,
    "fastestLapTime": "1:15.998",
    "statusId": 31
  },
  {
    "resultId": 121,
    "raceId": 1101,
    "driverId": 815,
    "constructorId": 9,
    "number": 11,
    "grid": 2,
    "position": 1,
    "positionText": 1,
    "positionOrder": 1,
    "points": 8,
    "laps": 17,
    "time": "33:17.667",
    "milliseconds": 1997667,
    "fastestLap": 11,
    "fastestLapTime": "1:43.616",
    "statusId": 1
  },
  {
    "resultId": 122,
    "raceId": 1101,
    "driverId": 844,
    "constructorId": 6,
    "number": 16,
    "grid": 1,
    "position": 2,
    "positionText": 2,
    "positionOrder": 2,
    "points": 7,
    "laps": 17,
    "time": "+4.463",
    "milliseconds": 2002130,
    "fastestLap": 12,
    "fastestLapTime": "1:43.646",
    "statusId": 1
  },
  {
    "resultId": 123,
    "raceId": 1101,
    "driverId": 830,
    "constructorId": 9,
    "number": 1,
    "grid": 3,
    "position": 3,
    "positionText": 3,
    "positionOrder": 3,
    "points": 6,
    "laps": 17,
    "time": "+5.065",
    "milliseconds": 2002732,
    "fastestLap": 10,
    "fastestLapTime": "1:43.723",
    "statusId": 1
  },
  {
    "resultId": 124,
    "raceId": 1101,
    "driverId": 847,
    "constructorId": 131,
    "number": 63,
    "grid": 4,
    "position": 4,
    "positionText": 4,
    "positionOrder": 4,
    "points": 5,
    "laps": 17,
    "time": "+3.467",
    "milliseconds": 2001134,
    "fastestLap": 10,
    "fastestLapTime": "1:44.409",
    "statusId": 1
  },
  {
    "resultId": 125,
    "raceId": 1101,
    "driverId": 832,
    "constructorId": 6,
    "number": 55,
    "grid": 5,
    "position": 5,
    "positionText": 5,
    "positionOrder": 5,
    "points": 4,
    "laps": 17,
    "time": "+10.388",
    "milliseconds": 2008055,
    "fastestLap": 11,
    "fastestLapTime": "1:44.398",
    "statusId": 1
  },
  {
    "resultId": 126,
    "raceId": 1101,
    "driverId": 4,
    "constructorId": 117,
    "number": 14,
    "grid": 8,
    "position": 6,
    "positionText": 6,
    "positionOrder": 6,
    "points": 3,
    "laps": 17,
    "time": "+11.613",
    "milliseconds": 2009280,
    "fastestLap": 12,
    "fastestLapTime": "1:44.544",
    "statusId": 1
  },
  {
    "resultId": 127,
    "raceId": 1101,
    "driverId": 1,
    "constructorId": 131,
    "number": 44,
    "grid": 6,
    "position": 7,
    "positionText": 7,
    "positionOrder": 7,
    "points": 2,
    "laps": 17,
    "time": "+4.890",
    "milliseconds": 2002557,
    "fastestLap": 8,
    "fastestLapTime": "1:44.601",
    "statusId": 1
  },
  {
    "resultId": 128,
    "raceId": 1101,
    "driverId": 840,
    "constructorId": 117,
    "number": 18,
    "grid": 9,
    "position": 8,
    "positionText": 8,
    "positionOrder": 8,
    "points": 1,
    "laps": 17,
    "time": "+18.417",
    "milliseconds": 2016084,
    "fastestLap": 14,
    "fastestLapTime": "1:44.855",
    "statusId": 1
  },
  {
    "resultId": 129,
    "raceId": 1101,
    "driverId": 848,
    "constructorId": 3,
    "number": 23,
    "grid": 7,
    "position": 9,
    "positionText": 9,
    "positionOrder": 9,
    "points": 0,
    "laps": 17,
    "time": "+21.757",
    "milliseconds": 2019424,
    "fastestLap": 10,
    "fastestLapTime": "1:44.915",
    "statusId": 1
  },
  {
    "resultId": 130,
    "raceId": 1101,
    "driverId": 857,
    "constructorId": 1,
    "number": 81,
    "grid": 11,
    "position": 10,
    "positionText": 10,
    "positionOrder": 10,
    "points": 0,
    "laps": 17,
    "time": "+22.851",
    "milliseconds": 2020518,
    "fastestLap": 8,
    "fastestLapTime": "1:44.776",
    "statusId": 1
  },
  {
    "resultId": 131,
    "raceId": 1101,
    "driverId": 825,
    "constructorId": 210,
    "number": 20,
    "grid": 13,
    "position": 11,
    "positionText": 11,
    "positionOrder": 11,
    "points": 0,
    "laps": 17,
    "time": "+27.990",
    "milliseconds": 2025657,
    "fastestLap": 14,
    "fastestLapTime": "1:45.349",
    "statusId": 1
  },
  {
    "resultId": 132,
    "raceId": 1101,
    "driverId": 855,
    "constructorId": 51,
    "number": 24,
    "grid": 14,
    "position": 12,
    "positionText": 12,
    "positionOrder": 12,
    "points": 0,
    "laps": 17,
    "time": "+34.602",
    "milliseconds": 2032269,
    "fastestLap": 16,
    "fastestLapTime": "1:45.766",
    "statusId": 1
  },
  {
    "resultId": 133,
    "raceId": 1101,
    "driverId": 842,
    "constructorId": 214,
    "number": 10,
    "grid": 17,
    "position": 13,
    "positionText": 13,
    "positionOrder": 13,
    "points": 0,
    "laps": 17,
    "time": "+36.918",
    "milliseconds": 2034585,
    "fastestLap": 12,
    "fastestLapTime": "1:45.883",
    "statusId": 1
  },
  {
    "resultId": 134,
    "raceId": 1101,
    "driverId": 856,
    "constructorId": 213,
    "number": 21,
    "grid": 18,
    "position": 14,
    "positionText": 14,
    "positionOrder": 14,
    "points": 0,
    "laps": 17,
    "time": "+41.626",
    "milliseconds": 2039293,
    "fastestLap": 17,
    "fastestLapTime": "1:45.768",
    "statusId": 1
  },
  {
    "resultId": 135,
    "raceId": 1101,
    "driverId": 807,
    "constructorId": 210,
    "number": 27,
    "grid": 12,
    "position": 15,
    "positionText": 15,
    "positionOrder": 15,
    "points": 0,
    "laps": 17,
    "time": "+48.587",
    "milliseconds": 2046254,
    "fastestLap": 8,
    "fastestLapTime": "1:45.971",
    "statusId": 1
  },
  {
    "resultId": 136,
    "raceId": 1101,
    "driverId": 822,
    "constructorId": 51,
    "number": 77,
    "grid": 15,
    "position": 16,
    "positionText": 16,
    "positionOrder": 16,
    "points": 0,
    "laps": 17,
    "time": "+49.917",
    "milliseconds": 2047584,
    "fastestLap": 9,
    "fastestLapTime": "1:46.277",
    "statusId": 1
  },
  {
    "resultId": 137,
    "raceId": 1101,
    "driverId": 846,
    "constructorId": 1,
    "number": 4,
    "grid": 10,
    "position": 17,
    "positionText": 17,
    "positionOrder": 17,
    "points": 0,
    "laps": 17,
    "time": "+51.104",
    "milliseconds": 2048771,
    "fastestLap": 15,
    "fastestLapTime": "1:44.484",
    "statusId": 1
  },
  {
    "resultId": 138,
    "raceId": 1101,
    "driverId": 839,
    "constructorId": 214,
    "number": 31,
    "grid": 0,
    "position": 18,
    "positionText": 18,
    "positionOrder": 18,
    "points": 0,
    "laps": 17,
    "time": "+1:00.621",
    "milliseconds": 2058288,
    "fastestLap": 15,
    "fastestLapTime": "1:45.090",
    "statusId": 1
  },
  {
    "resultId": 139,
    "raceId": 1101,
    "driverId": 852,
    "constructorId": 213,
    "number": 22,
    "grid": 16,
    "position": "\\N",
    "positionText": "R",
    "positionOrder": 19,
    "points": 0,
    "laps": 2,
    "time": "\\N",
    "milliseconds": "\\N",
    "fastestLap": "\\N",
    "fastestLapTime": "\\N",
    "statusId": 130
  },
  {
    "resultId": 140,
    "raceId": 1101,
    "driverId": 858,
    "constructorId": 3,
    "number": 2,
    "grid": 0,
    "position": "\\N",
    "positionText": "W",
    "positionOrder": 20,
    "points": 0,
    "laps": 0,
    "time": "\\N",
    "milliseconds": "\\N",
    "fastestLap": "\\N",
    "fastestLapTime": "\\N",
    "statusId": 3
  }
]